module github.com/diegocheca/goPosts.git

go 1.19

require (
	github.com/andybalholm/brotli v1.0.5 // indirect
	github.com/gofiber/fiber/v2 v2.44.0 // indirect
	github.com/gofiber/template v1.8.1 // indirect
	github.com/google/uuid v1.3.0 // indirect
	github.com/gorilla/websocket v1.5.0 // indirect
	github.com/jackc/pgpassfile v1.0.0 // indirect
	github.com/jackc/pgservicefile v0.0.0-20221227161230-091c0ba34f0a // indirect
	github.com/jackc/pgx/v5 v5.3.0 // indirect
	github.com/jinzhu/inflection v1.0.0 // indirect
	github.com/jinzhu/now v1.1.5 // indirect
	github.com/jordan-wright/email v4.0.1-0.20210109023952-943e75fe5223+incompatible // indirect
	github.com/klauspost/compress v1.16.5 // indirect
	github.com/mattn/go-colorable v0.1.13 // indirect
	github.com/mattn/go-isatty v0.0.18 // indirect
	github.com/mattn/go-runewidth v0.0.14 // indirect
	github.com/philhofer/fwd v1.1.2 // indirect
	github.com/rivo/uniseg v0.2.0 // indirect
	github.com/savsgio/dictpool v0.0.0-20221023140959-7bf2e61cea94 // indirect
	github.com/savsgio/gotils v0.0.0-20230208104028-c358bd845dee // indirect
	github.com/slack-go/slack v0.12.2 // indirect
	github.com/tinylib/msgp v1.1.8 // indirect
	github.com/valyala/bytebufferpool v1.0.0 // indirect
	github.com/valyala/fasthttp v1.47.0 // indirect
	github.com/valyala/tcplisten v1.0.0 // indirect
	golang.org/x/crypto v0.7.0 // indirect
	golang.org/x/sys v0.7.0 // indirect
	golang.org/x/text v0.8.0 // indirect
	gorm.io/driver/postgres v1.5.0 // indirect
	gorm.io/gorm v1.25.0 // indirect
)
